%YAML 1.1
%TAG !u! tag:unity3d.com,2011:
--- !u!1001 &7510563663440656412
PrefabInstance:
  m_ObjectHideFlags: 0
  serializedVersion: 2
  m_Modification:
    m_TransformParent: {fileID: 0}
    m_Modifications:
    - target: {fileID: 3855868761091861311, guid: 2e6856101b8d9c8a1b4a706b8e91dcd4, type: 3}
      propertyPath: m_Name
      value: Spinner
      objectReference: {fileID: 0}
    - target: {fileID: 5488417914949905539, guid: 2e6856101b8d9c8a1b4a706b8e91dcd4, type: 3}
      propertyPath: m_RootOrder
      value: 0
      objectReference: {fileID: 0}
    - target: {fileID: 5488417914949905539, guid: 2e6856101b8d9c8a1b4a706b8e91dcd4, type: 3}
      propertyPath: m_LocalScale.x
      value: 5
      objectReference: {fileID: 0}
    - target: {fileID: 5488417914949905539, guid: 2e6856101b8d9c8a1b4a706b8e91dcd4, type: 3}
      propertyPath: m_LocalScale.y
      value: 0.6
      objectReference: {fileID: 0}
    - target: {fileID: 5488417914949905539, guid: 2e6856101b8d9c8a1b4a706b8e91dcd4, type: 3}
      propertyPath: m_LocalScale.z
      value: 0.2
      objectReference: {fileID: 0}
    - target: {fileID: 5488417914949905539, guid: 2e6856101b8d9c8a1b4a706b8e91dcd4, type: 3}
      propertyPath: m_LocalPosition.x
      value: 0
      objectReference: {fileID: 0}
    - target: {fileID: 5488417914949905539, guid: 2e6856101b8d9c8a1b4a706b8e91dcd4, type: 3}
      propertyPath: m_LocalPosition.y
      value: 0.3
      objectReference: {fileID: 0}
    - target: {fileID: 5488417914949905539, guid: 2e6856101b8d9c8a1b4a706b8e91dcd4, type: 3}
      propertyPath: m_LocalPosition.z
      value: 4.11
      objectReference: {fileID: 0}
    - target: {fileID: 5488417914949905539, guid: 2e6856101b8d9c8a1b4a706b8e91dcd4, type: 3}
      propertyPath: m_LocalRotation.w
      value: 1
      objectReference: {fileID: 0}
    - target: {fileID: 5488417914949905539, guid: 2e6856101b8d9c8a1b4a706b8e91dcd4, type: 3}
      propertyPath: m_LocalRotation.x
      value: 0
      objectReference: {fileID: 0}
    - target: {fileID: 5488417914949905539, guid: 2e6856101b8d9c8a1b4a706b8e91dcd4, type: 3}
      propertyPath: m_LocalRotation.y
      value: 0
      objectReference: {fileID: 0}
    - target: {fileID: 5488417914949905539, guid: 2e6856101b8d9c8a1b4a706b8e91dcd4, type: 3}
      propertyPath: m_LocalRotation.z
      value: 0
      objectReference: {fileID: 0}
    - target: {fileID: 5488417914949905539, guid: 2e6856101b8d9c8a1b4a706b8e91dcd4, type: 3}
      propertyPath: m_LocalEulerAnglesHint.x
      value: 0
      objectReference: {fileID: 0}
    - target: {fileID: 5488417914949905539, guid: 2e6856101b8d9c8a1b4a706b8e91dcd4, type: 3}
      propertyPath: m_LocalEulerAnglesHint.y
      value: 0
      objectReference: {fileID: 0}
    - target: {fileID: 5488417914949905539, guid: 2e6856101b8d9c8a1b4a706b8e91dcd4, type: 3}
      propertyPath: m_LocalEulerAnglesHint.z
      value: 0
      objectReference: {fileID: 0}
    m_RemovedComponents: []
  m_SourcePrefab: {fileID: 100100000, guid: 2e6856101b8d9c8a1b4a706b8e91dcd4, type: 3}
--- !u!1 &6753198143802823459 stripped
GameObject:
  m_CorrespondingSourceObject: {fileID: 3855868761091861311, guid: 2e6856101b8d9c8a1b4a706b8e91dcd4, type: 3}
  m_PrefabInstance: {fileID: 7510563663440656412}
  m_PrefabAsset: {fileID: 0}
--- !u!114 &1657833271
MonoBehaviour:
  m_ObjectHideFlags: 0
  m_CorrespondingSourceObject: {fileID: 0}
  m_PrefabInstance: {fileID: 0}
  m_PrefabAsset: {fileID: 0}
  m_GameObject: {fileID: 6753198143802823459}
  m_Enabled: 1
  m_EditorHideFlags: 0
  m_Script: {fileID: 11500000, guid: ad3d8d0a23ad16d36993bce7fad08268, type: 3}
  m_Name: 
  m_EditorClassIdentifier: 
